[
  {
    "outputFileName": "wwwroot/css/site.min.css",
    "inputFiles": ["wwwroot/css/site.css"]
  },
  {
    "outputFileName": "wwwroot/js/site.min.js",
    "inputFiles": ["wwwroot/js/site.js"],
    "minify": {
      "enabled": true,
      "renameLocals": true
    },
    "sourceMap": false
  }
]