{
  "x-generator": "NSwag v11.20.1.0 (NJsonSchema v9.11.0.0 (Newtonsoft.Json v11.0.0.0))",
  "swagger": "2.0",
  "info": {
    "title": "My Title",
    "version": "1.0.0"
  },
  "host": "localhost:44366",
  "schemes": [
    "https"
  ],
  "consumes": [
    "application/json-patch+json",
    "application/json",
    "text/json",
    "application/*+json"
  ],
  "paths": {
    "/api": {
      "get": {
        "tags": [
          "Category"
        ],
        "operationId": "Category_GetAll",
        "produces": [
          "text/plain",
          "application/json",
          "text/json"
        ],
        "responses": {
          "200": {
            "x-nullable": true,
            "description": "",
            "schema": {
              "type": "array",
              "items": {
                "$ref": "#/definitions/Categories"
              }
            }
          }
        }
      },
      "post": {
        "tags": [
          "Category"
        ],
        "operationId": "Category_Create",
        "consumes": [
          "application/json-patch+json",
          "application/json",
          "text/json",
          "application/*+json"
        ],
        "parameters": [
          {
            "name": "categories",
            "in": "body",
            "required": true,
            "schema": {
              "$ref": "#/definitions/Categories"
            },
            "x-nullable": false
          }
        ],
        "responses": {
          "200": {
            "x-nullable": true,
            "description": "",
            "schema": {
              "type": "file"
            }
          }
        }
      }
    },
    "/api/{id}": {
      "get": {
        "tags": [
          "Category"
        ],
        "operationId": "Category_Get",
        "produces": [
          "text/plain",
          "application/json",
          "text/json"
        ],
        "parameters": [
          {
            "type": "integer",
            "name": "id",
            "in": "path",
            "required": true,
            "format": "int32",
            "x-nullable": false
          }
        ],
        "responses": {
          "200": {
            "x-nullable": true,
            "description": "",
            "schema": {
              "$ref": "#/definitions/Categories"
            }
          }
        }
      },
      "put": {
        "tags": [
          "Category"
        ],
        "operationId": "Category_Update",
        "consumes": [
          "application/json-patch+json",
          "application/json",
          "text/json",
          "application/*+json"
        ],
        "parameters": [
          {
            "type": "integer",
            "name": "id",
            "in": "path",
            "required": true,
            "format": "int32",
            "x-nullable": false
          },
          {
            "name": "category",
            "in": "body",
            "required": true,
            "schema": {
              "$ref": "#/definitions/Categories"
            },
            "x-nullable": false
          }
        ],
        "responses": {
          "200": {
            "x-nullable": true,
            "description": "",
            "schema": {
              "type": "file"
            }
          }
        }
      },
      "delete": {
        "tags": [
          "Category"
        ],
        "operationId": "Category_Delete",
        "parameters": [
          {
            "type": "integer",
            "name": "id",
            "in": "path",
            "required": true,
            "format": "int32",
            "x-nullable": false
          }
        ],
        "responses": {
          "200": {
            "x-nullable": true,
            "description": "",
            "schema": {
              "type": "file"
            }
          }
        }
      }
    },
    "/api/images/{id}": {
      "get": {
        "tags": [
          "Category"
        ],
        "operationId": "Category_GetImage",
        "produces": [
          "text/plain",
          "application/json",
          "text/json"
        ],
        "parameters": [
          {
            "type": "integer",
            "name": "id",
            "in": "path",
            "required": true,
            "format": "int32",
            "x-nullable": true
          }
        ],
        "responses": {
          "200": {
            "x-nullable": true,
            "description": "",
            "schema": {
              "$ref": "#/definitions/Categories"
            }
          }
        }
      }
    },
    "/api/UpdateImage/{id}": {
      "put": {
        "tags": [
          "Category"
        ],
        "operationId": "Category_UpdateImage",
        "consumes": [
          "application/json-patch+json",
          "application/json",
          "text/json",
          "application/*+json"
        ],
        "parameters": [
          {
            "type": "integer",
            "name": "id",
            "in": "path",
            "required": true,
            "format": "int32",
            "x-nullable": true
          },
          {
            "name": "categoryModel",
            "in": "body",
            "required": true,
            "schema": {
              "$ref": "#/definitions/Categories"
            },
            "x-nullable": false
          }
        ],
        "responses": {
          "200": {
            "x-nullable": true,
            "description": "",
            "schema": {
              "type": "file"
            }
          }
        }
      }
    },
    "/api/Products": {
      "get": {
        "tags": [
          "Products"
        ],
        "operationId": "Products_GetAll",
        "produces": [
          "text/plain",
          "application/json",
          "text/json"
        ],
        "responses": {
          "200": {
            "x-nullable": true,
            "description": "",
            "schema": {
              "type": "array",
              "items": {
                "$ref": "#/definitions/Products"
              }
            }
          }
        }
      },
      "post": {
        "tags": [
          "Products"
        ],
        "operationId": "CreateProducts",
        "consumes": [
          "application/json-patch+json",
          "application/json",
          "text/json",
          "application/*+json"
        ],
        "parameters": [
          {
            "name": "product",
            "in": "body",
            "required": true,
            "schema": {
              "$ref": "#/definitions/Products"
            },
            "x-nullable": false
          }
        ],
        "responses": {
          "200": {
            "x-nullable": true,
            "description": "",
            "schema": {
              "type": "file"
            }
          }
        }
      }
    },
    "/api/Products/{id}": {
      "get": {
        "tags": [
          "Products"
        ],
        "operationId": "Products_Get",
        "produces": [
          "text/plain",
          "application/json",
          "text/json"
        ],
        "parameters": [
          {
            "type": "integer",
            "name": "id",
            "in": "path",
            "required": true,
            "format": "int32",
            "x-nullable": false
          }
        ],
        "responses": {
          "200": {
            "x-nullable": true,
            "description": "",
            "schema": {
              "$ref": "#/definitions/Products"
            }
          }
        }
      },
      "put": {
        "tags": [
          "Products"
        ],
        "operationId": "Products_Update",
        "consumes": [
          "application/json-patch+json",
          "application/json",
          "text/json",
          "application/*+json"
        ],
        "parameters": [
          {
            "type": "integer",
            "name": "id",
            "in": "path",
            "required": true,
            "format": "int32",
            "x-nullable": false
          },
          {
            "name": "product",
            "in": "body",
            "required": true,
            "schema": {
              "$ref": "#/definitions/Products"
            },
            "x-nullable": false
          }
        ],
        "responses": {
          "200": {
            "x-nullable": true,
            "description": "",
            "schema": {
              "type": "file"
            }
          }
        }
      },
      "delete": {
        "tags": [
          "Products"
        ],
        "operationId": "Products_Delete",
        "parameters": [
          {
            "type": "integer",
            "name": "id",
            "in": "path",
            "required": true,
            "format": "int32",
            "x-nullable": false
          }
        ],
        "responses": {
          "200": {
            "x-nullable": true,
            "description": "",
            "schema": {
              "type": "file"
            }
          }
        }
      }
    }
  },
  "definitions": {
    "Categories": {
      "type": "object",
      "additionalProperties": false,
      "required": [
        "categoryId"
      ],
      "properties": {
        "categoryId": {
          "type": "integer",
          "format": "int32"
        },
        "categoryName": {
          "type": "string"
        },
        "description": {
          "type": "string"
        },
        "picture": {
          "type": "string",
          "format": "byte"
        },
        "products": {
          "type": "array",
          "items": {
            "$ref": "#/definitions/Products"
          }
        }
      }
    },
    "Products": {
      "type": "object",
      "additionalProperties": false,
      "required": [
        "productId",
        "productName",
        "quantityPerUnit",
        "unitPrice",
        "discontinued"
      ],
      "properties": {
        "productId": {
          "type": "integer",
          "format": "int32"
        },
        "productName": {
          "type": "string",
          "maxLength": 100,
          "minLength": 0
        },
        "supplierId": {
          "type": "integer",
          "format": "int32"
        },
        "categoryId": {
          "type": "integer",
          "format": "int32"
        },
        "quantityPerUnit": {
          "type": "string",
          "maxLength": 10,
          "minLength": 0
        },
        "unitPrice": {
          "type": "number",
          "format": "decimal",
          "maximum": 1000000.0,
          "minimum": 0.0
        },
        "unitsInStock": {
          "type": "integer"
        },
        "unitsOnOrder": {
          "type": "integer"
        },
        "reorderLevel": {
          "type": "integer"
        },
        "discontinued": {
          "type": "boolean"
        },
        "category": {
          "$ref": "#/definitions/Categories"
        },
        "supplier": {
          "$ref": "#/definitions/Suppliers"
        },
        "orderDetails": {
          "type": "array",
          "items": {
            "$ref": "#/definitions/OrderDetails"
          }
        }
      }
    },
    "Suppliers": {
      "type": "object",
      "additionalProperties": false,
      "required": [
        "supplierId"
      ],
      "properties": {
        "supplierId": {
          "type": "integer",
          "format": "int32"
        },
        "companyName": {
          "type": "string"
        },
        "contactName": {
          "type": "string"
        },
        "contactTitle": {
          "type": "string"
        },
        "address": {
          "type": "string"
        },
        "city": {
          "type": "string"
        },
        "region": {
          "type": "string"
        },
        "postalCode": {
          "type": "string"
        },
        "country": {
          "type": "string"
        },
        "phone": {
          "type": "string"
        },
        "fax": {
          "type": "string"
        },
        "homePage": {
          "type": "string"
        },
        "products": {
          "type": "array",
          "items": {
            "$ref": "#/definitions/Products"
          }
        }
      }
    },
    "OrderDetails": {
      "type": "object",
      "additionalProperties": false,
      "required": [
        "orderId",
        "productId",
        "unitPrice",
        "quantity",
        "discount"
      ],
      "properties": {
        "orderId": {
          "type": "integer",
          "format": "int32"
        },
        "productId": {
          "type": "integer",
          "format": "int32"
        },
        "unitPrice": {
          "type": "number",
          "format": "decimal"
        },
        "quantity": {
          "type": "integer"
        },
        "discount": {
          "type": "number",
          "format": "double"
        },
        "order": {
          "$ref": "#/definitions/Orders"
        },
        "product": {
          "$ref": "#/definitions/Products"
        }
      }
    },
    "Orders": {
      "type": "object",
      "additionalProperties": false,
      "required": [
        "orderId"
      ],
      "properties": {
        "orderId": {
          "type": "integer",
          "format": "int32"
        },
        "customerId": {
          "type": "string"
        },
        "employeeId": {
          "type": "integer",
          "format": "int32"
        },
        "orderDate": {
          "type": "string",
          "format": "date-time"
        },
        "requiredDate": {
          "type": "string",
          "format": "date-time"
        },
        "shippedDate": {
          "type": "string",
          "format": "date-time"
        },
        "shipVia": {
          "type": "integer",
          "format": "int32"
        },
        "freight": {
          "type": "number",
          "format": "decimal"
        },
        "shipName": {
          "type": "string"
        },
        "shipAddress": {
          "type": "string"
        },
        "shipCity": {
          "type": "string"
        },
        "shipRegion": {
          "type": "string"
        },
        "shipPostalCode": {
          "type": "string"
        },
        "shipCountry": {
          "type": "string"
        },
        "customer": {
          "$ref": "#/definitions/Customers"
        },
        "employee": {
          "$ref": "#/definitions/Employees"
        },
        "shipViaNavigation": {
          "$ref": "#/definitions/Shippers"
        },
        "orderDetails": {
          "type": "array",
          "items": {
            "$ref": "#/definitions/OrderDetails"
          }
        }
      }
    },
    "Customers": {
      "type": "object",
      "additionalProperties": false,
      "properties": {
        "customerId": {
          "type": "string"
        },
        "companyName": {
          "type": "string"
        },
        "contactName": {
          "type": "string"
        },
        "contactTitle": {
          "type": "string"
        },
        "address": {
          "type": "string"
        },
        "city": {
          "type": "string"
        },
        "region": {
          "type": "string"
        },
        "postalCode": {
          "type": "string"
        },
        "country": {
          "type": "string"
        },
        "phone": {
          "type": "string"
        },
        "fax": {
          "type": "string"
        },
        "customerCustomerDemo": {
          "type": "array",
          "items": {
            "$ref": "#/definitions/CustomerCustomerDemo"
          }
        },
        "orders": {
          "type": "array",
          "items": {
            "$ref": "#/definitions/Orders"
          }
        }
      }
    },
    "CustomerCustomerDemo": {
      "type": "object",
      "additionalProperties": false,
      "properties": {
        "customerId": {
          "type": "string"
        },
        "customerTypeId": {
          "type": "string"
        },
        "customer": {
          "$ref": "#/definitions/Customers"
        },
        "customerType": {
          "$ref": "#/definitions/CustomerDemographics"
        }
      }
    },
    "CustomerDemographics": {
      "type": "object",
      "additionalProperties": false,
      "properties": {
        "customerTypeId": {
          "type": "string"
        },
        "customerDesc": {
          "type": "string"
        },
        "customerCustomerDemo": {
          "type": "array",
          "items": {
            "$ref": "#/definitions/CustomerCustomerDemo"
          }
        }
      }
    },
    "Employees": {
      "type": "object",
      "additionalProperties": false,
      "required": [
        "employeeId"
      ],
      "properties": {
        "employeeId": {
          "type": "integer",
          "format": "int32"
        },
        "lastName": {
          "type": "string"
        },
        "firstName": {
          "type": "string"
        },
        "title": {
          "type": "string"
        },
        "titleOfCourtesy": {
          "type": "string"
        },
        "birthDate": {
          "type": "string",
          "format": "date-time"
        },
        "hireDate": {
          "type": "string",
          "format": "date-time"
        },
        "address": {
          "type": "string"
        },
        "city": {
          "type": "string"
        },
        "region": {
          "type": "string"
        },
        "postalCode": {
          "type": "string"
        },
        "country": {
          "type": "string"
        },
        "homePhone": {
          "type": "string"
        },
        "extension": {
          "type": "string"
        },
        "photo": {
          "type": "string",
          "format": "byte"
        },
        "notes": {
          "type": "string"
        },
        "reportsTo": {
          "type": "integer",
          "format": "int32"
        },
        "photoPath": {
          "type": "string"
        },
        "reportsToNavigation": {
          "$ref": "#/definitions/Employees"
        },
        "employeeTerritories": {
          "type": "array",
          "items": {
            "$ref": "#/definitions/EmployeeTerritories"
          }
        },
        "inverseReportsToNavigation": {
          "type": "array",
          "items": {
            "$ref": "#/definitions/Employees"
          }
        },
        "orders": {
          "type": "array",
          "items": {
            "$ref": "#/definitions/Orders"
          }
        }
      }
    },
    "EmployeeTerritories": {
      "type": "object",
      "additionalProperties": false,
      "required": [
        "employeeId"
      ],
      "properties": {
        "employeeId": {
          "type": "integer",
          "format": "int32"
        },
        "territoryId": {
          "type": "string"
        },
        "employee": {
          "$ref": "#/definitions/Employees"
        },
        "territory": {
          "$ref": "#/definitions/Territories"
        }
      }
    },
    "Territories": {
      "type": "object",
      "additionalProperties": false,
      "required": [
        "regionId"
      ],
      "properties": {
        "territoryId": {
          "type": "string"
        },
        "territoryDescription": {
          "type": "string"
        },
        "regionId": {
          "type": "integer",
          "format": "int32"
        },
        "region": {
          "$ref": "#/definitions/Region"
        },
        "employeeTerritories": {
          "type": "array",
          "items": {
            "$ref": "#/definitions/EmployeeTerritories"
          }
        }
      }
    },
    "Region": {
      "type": "object",
      "additionalProperties": false,
      "required": [
        "regionId"
      ],
      "properties": {
        "regionId": {
          "type": "integer",
          "format": "int32"
        },
        "regionDescription": {
          "type": "string"
        },
        "territories": {
          "type": "array",
          "items": {
            "$ref": "#/definitions/Territories"
          }
        }
      }
    },
    "Shippers": {
      "type": "object",
      "additionalProperties": false,
      "required": [
        "shipperId"
      ],
      "properties": {
        "shipperId": {
          "type": "integer",
          "format": "int32"
        },
        "companyName": {
          "type": "string"
        },
        "phone": {
          "type": "string"
        },
        "orders": {
          "type": "array",
          "items": {
            "$ref": "#/definitions/Orders"
          }
        }
      }
    }
  }
}